module nameservice

go 1.13

require (
	github.com/coreos/go-etcd v2.0.0+incompatible // indirect
	github.com/cosmos/cosmos-sdk v0.39.0
	github.com/cosmos/sdk-tutorials/nameservice v0.0.0-20200811112158-79a03678d362
	//github.com/cosmos/sdk-tutorials/nameservice v0.0.0-20200811112158-79a03678d362
	github.com/cpuguy83/go-md2man v1.0.10 // indirect
	github.com/etcd-io/bbolt v1.3.3 // indirect
	github.com/golang/mock v1.3.1 // indirect
	github.com/gorilla/mux v1.7.4
	github.com/onsi/ginkgo v1.8.0 // indirect
	github.com/onsi/gomega v1.5.0 // indirect
	github.com/spf13/afero v1.2.2 // indirect
	github.com/spf13/cobra v1.0.0
	github.com/spf13/viper v1.7.1
	github.com/tendermint/go-amino v0.15.1
	github.com/tendermint/tendermint v0.33.7
	github.com/tendermint/tm-db v0.5.1
	github.com/ugorji/go/codec v0.0.0-20181204163529-d75b2dcb6bc8 // indirect
	gitlab.com/dstreppa/nameservice v0.0.0
	golang.org/x/text v0.3.2 // indirect
)

replace gitlab.com/dstreppa/nameservice v0.0.0 => ../nameservice
